{
    "__OUTPUT_MODEL": {
        "__INPUT_MODEL_1": [
            [
                "output_value_1_of_output_model",
                "input_value_1_of_input_model_1"
            ]
        ]
    },
    "GridEMS": {
        "HEMS_default": [
            "control_signal"
        ],
        "HEMS_forecast_default": [
            "control_signal"
        ],
        "HEMS_forecast_opt": [
            "control_signal"
        ],
        "GCP_Aggregator_HEMS": [
            "control_signal"
        ],
        "HEMS_mu_user": [
            "control_signal"
        ],
        "RetailElectricityProvider": [
            "grid_tariff_signal"
        ],
        "Grid": [
            "calc_grid"
        ]
    },
    "Grid": {
        "GridEMS": [
            "grid_status",
            "ptdf_mat",
            "vpif_mat"
        ]
    },
    "HEMS_default": {
        "PVLib": [
            [
                "p_set_pv",
                "p_set"
            ]
        ],
        "PVLibExact": [
            [
                "p_set_pv",
                "p_set"
            ]
        ],
        "BSS": [
            [
                "p_set_storage",
                "p_set"
            ]
        ],
        "ChargingStation": [
            [
                "p_set_charging_station",
                "p_set"
            ]
        ],
        "Heatpump": [
            [
                "p_th_set_heatpump",
                "p_th_set"
            ]
        ],
        "GridEMS": [
            [
                "p_balance",
                "p_ems"
            ],
            [
                "q_balance",
                "q_ems"
            ]
        ],
        "grid_load": [
            [
                "p_balance",
                "p_w"
            ],
            [
                "q_balance",
                "q_var"
            ]
        ],
        "RetailElectricityProvider": [
            [
                "p_demand",
                "p_ems_dem"
            ],
            [
                "p_generation",
                "p_ems_gen"
            ]
        ]
    },
    "HEMS_forecast_default": {
        "PVLib": [
            [
                "p_set_pv",
                "p_set"
            ]
        ],
        "PVLibExact": [
            [
                "p_set_pv",
                "p_set"
            ]
        ],
        "BSS": [
            [
                "p_set_storage",
                "p_set"
            ]
        ],
        "ChargingStation": [
            [
                "p_set_charging_station",
                "p_set"
            ]
        ],
        "Heatpump": [
            [
                "p_th_set_heatpump",
                "p_th_set"
            ]
        ],
        "GridEMS": [
            [
                "p_balance",
                "p_ems"
            ],
            [
                "q_balance",
                "q_ems"
            ]
        ],
        "grid_load": [
            [
                "p_balance",
                "p_w"
            ],
            [
                "q_balance",
                "q_var"
            ]
        ],
        "RetailElectricityProvider": [
            [
                "p_demand",
                "p_ems_dem"
            ],
            [
                "p_generation",
                "p_ems_gen"
            ]
        ]
    },
    "HEMS_forecast_opt": {
        "PVLib": [
            [
                "p_set_pv",
                "p_set"
            ]
        ],
        "PVLibExact": [
            [
                "p_set_pv",
                "p_set"
            ]
        ],
        "BSS": [
            [
                "p_set_storage",
                "p_set"
            ]
        ],
        "ChargingStation": [
            [
                "p_set_charging_station",
                "p_set"
            ]
        ],
        "Heatpump": [
            [
                "p_th_set_heatpump",
                "p_th_set"
            ]
        ],
        "GridEMS": [
            [
                "p_balance",
                "p_ems"
            ],
            [
                "q_balance",
                "q_ems"
            ]
        ],
        "grid_load": [
            [
                "p_balance",
                "p_w"
            ],
            [
                "q_balance",
                "q_var"
            ]
        ],
        "RetailElectricityProvider": [
            [
                "p_demand",
                "p_ems_dem"
            ],
            [
                "p_generation",
                "p_ems_gen"
            ]
        ]
    },
    "GCP_Aggregator_HEMS": {
        "GridEMS": [
            [
                "p_balance",
                "p_ems"
            ],
            [
                "q_balance",
                "q_ems"
            ]
        ],
        "grid_load": [
            [
                "p_balance",
                "p_w"
            ],
            [
                "q_balance",
                "q_var"
            ]
        ],
        "RetailElectricityProvider": [
            [
                "p_demand",
                "p_ems_dem"
            ],
            [
                "p_generation",
                "p_ems_gen"
            ]
        ]
    },
    "HEMS_mu_user": {
        "PVLib": [
            [
                "p_set_pv",
                "p_set"
            ]
        ],
        "PVLibExact": [
            [
                "p_set_pv",
                "p_set"
            ]
        ],
        "BSS": [
            [
                "p_set_storage",
                "p_set"
            ]
        ],
        "ChargingStation": [
            [
                "p_set_charging_station",
                "p_set"
            ]
        ],
        "Heatpump": [
            [
                "p_th_set_heatpump",
                "p_th_set"
            ]
        ],
        "GridEMS": [
            [
                "p_balance",
                "p_ems"
            ],
            [
                "q_balance",
                "q_ems"
            ]
        ],
        "grid_load": [
            [
                "p_balance",
                "p_w"
            ],
            [
                "q_balance",
                "q_var"
            ]
        ],
        "RetailElectricityProvider": [
            [
                "p_demand",
                "p_ems_dem"
            ],
            [
                "p_generation",
                "p_ems_gen"
            ]
        ]
    },
    "HouseholdInflux": {
        "HEMS_default": [
            "p",
            "q"
        ],
        "GCP_Aggregator_HEMS": [
            "p",
            "q"
        ],
        "HEMS_forecast_default": [
            "p",
            "q"
        ],
        "HEMS_forecast_opt": [
            "p",
            "q"
        ],
        "HEMS_mu_user": [
            "p",
            "q"
        ],
        "grid_load": [
            [
                "p",
                "p_w"
            ],
            [
                "q",
                "q_var"
            ]
        ]
    },
    "PvInflux": {
        "HEMS_default": [
            "p",
            "q"
        ],
        "GCP_Aggregator_HEMS": [
            "p",
            "q"
        ],
        "HEMS_forecast_default": [
            "p",
            "q"
        ],
        "HEMS_forecast_opt": [
            "p",
            "q"
        ],
        "HEMS_mu_user": [
            "p",
            "q"
        ],
        "grid_load": [
            [
                "p",
                "p_w"
            ],
            [
                "q",
                "q_var"
            ]
        ]
    },
    "HouseholdCSV": {
        "HEMS_default": [
            "p",
            "q"
        ],
        "GCP_Aggregator_HEMS": [
            "p",
            "q"
        ],
        "HEMS_forecast_default": [
            "p",
            "q"
        ],
        "HEMS_forecast_opt": [
            "p",
            "q"
        ],
        "HEMS_mu_user": [
            "p",
            "q",
            "e_demand_annual"
        ],
        "grid_load": [
            [
                "p",
                "p_w"
            ],
            [
                "q",
                "q_var"
            ]
        ]
    },
    "PvCSV": {
        "HEMS_default": [
            "p",
            "q"
        ],
        "GCP_Aggregator_HEMS": [
            "p",
            "q"
        ],
        "HEMS_forecast_default": [
            "p",
            "q"
        ],
        "HEMS_forecast_opt": [
            "p",
            "q"
        ],
        "HEMS_mu_user": [
            "p",
            "q"
        ],
        "grid_load": [
            [
                "p",
                "p_w"
            ],
            [
                "q",
                "q_var"
            ]
        ]
    },
    "PVLib": {
        "HEMS_default": [
            "pv_data"
        ],
        "GCP_Aggregator_HEMS": [
            "p",
            "q"
        ],
        "HEMS_forecast_default": [
            "pv_data"
        ],
        "HEMS_forecast_opt": [
            "pv_data"
        ],
        "HEMS_mu_user": [
            "pv_data"
        ],
        "grid_load": [
            [
                "p",
                "p_w"
            ],
            [
                "q",
                "q_var"
            ]
        ]
    },
    "PVLibExact": {
        "HEMS_default": [
            "pv_data"
        ],
        "GCP_Aggregator_HEMS": [
            "p",
            "q"
        ],
        "HEMS_forecast_default": [
            "pv_data"
        ],
        "HEMS_forecast_opt": [
            "pv_data"
        ],
        "HEMS_mu_user": [
            "pv_data"
        ],
        "grid_load": [
            [
                "p",
                "p_w"
            ],
            [
                "q",
                "q_var"
            ]
        ]
    },
    "BSS": {
        "HEMS_default": [
            "bss_data"
        ],
        "HEMS_forecast_default": [
            "bss_data"
        ],
        "HEMS_forecast_opt": [
            "bss_data"
        ],
        "HEMS_mu_user": [
            "bss_data"
        ]
    },
    "ChargingStation": {
        "HEMS_default": [
            "cs_data"
        ],
        "HEMS_forecast_default": [
            "cs_data"
        ],
        "HEMS_forecast_opt": [
            "cs_data"
        ],
        "GCP_Aggregator_HEMS": [
            "p",
            "q"
        ],
        "EV": [
            [
                "p_device",
                "p_cha"
            ]
        ],
        "grid_load": [
            [
                "p",
                "p_w"
            ],
            [
                "q",
                "q_var"
            ]
        ]
    },
    "ChargingStationCSV": {
        "HEMS_default": [
            "p",
            "q"
        ],
        "GCP_Aggregator_HEMS": [
            "p",
            "q"
        ],
        "HEMS_forecast_default": [
            "p",
            "q"
        ],
        "HEMS_forecast_opt": [
            "p",
            "q"
        ],
        "HEMS_mu_user": [
            "p",
            "q",
            "e_demand_annual"
        ],
        "grid_load": [
            [
                "p",
                "p_w"
            ],
            [
                "q",
                "q_var"
            ]
        ]
    },
    "EV": {
        "ChargingStation": [
            "ev_data"
        ]
    },
    "HeatpumpCSV": {
        "HEMS_default": [
            [
                "p_el",
                "p"
            ],
            [
                "q_el",
                "q"
            ]
        ],
        "GCP_Aggregator_HEMS": [
            [
                "p_el",
                "p"
            ],
            [
                "q_el",
                "q"
            ]
        ],
        "HEMS_forecast_default": [
            [
                "p_el",
                "p"
            ],
            [
                "q_el",
                "q"
            ]
        ],
        "HEMS_forecast_opt": [
            [
                "p_el",
                "p"
            ],
            [
                "q_el",
                "q"
            ]
        ],
        "HEMS_mu_user": [
            [
                "p_el",
                "p"
            ],
            [
                "q_el",
                "q"
            ]
        ]
    },
    "Heatpump": {
        "HEMS_default": [
            "hp_data"
        ],
        "HEMS_forecast_default": [
            "hp_data"
        ],
        "HEMS_forecast_opt": [
            "hp_data"
        ],
        "HEMS_mu_user": [
            "hp_data"
        ]
    },
    "HouseholdThermalCSV": {
        "HEMS_default": [
            "p_th_room",
            "p_th_water"
        ],
        "HEMS_forecast_default": [
            "p_th_room",
            "p_th_water"
        ],
        "HEMS_forecast_opt": [
            "p_th_room",
            "p_th_water"
        ],
        "HEMS_mu_user": [
            "p_th_room",
            "p_th_water"
        ]
    },
    "RetailElectricityProvider": {
        "HEMS_default": [
            "tariff"
        ],
        "GCP_Aggregator_HEMS": [
            "tariff"
        ],
        "HEMS_forecast_default": [
            "tariff"
        ],
        "HEMS_forecast_opt": [
            "tariff"
        ],
        "HEMS_mu_user": [
            "tariff"
        ]
    },
    "MarketDayAheadCSV": {
        "RetailElectricityProvider": [
            "market_data"
        ]
    }
}
