{
    "load_1_1": {
        "ems": "HEMS_default_0",
        "entities": [
            "HouseholdCSV_0",
            "ChargingStation_0",
            "EV_0"
        ],
        "cs_ev_connection": {
            "ChargingStation_0": ["EV_0"]
        }
    },
    "load_1_2": {
        "ems": "HEMS_default_1",
        "entities": [
            "HouseholdCSV_1",
            "HouseholdThermalCSV_0",
            "Heatpump_0"
        ],
        "cs_ev_connection": {}
    },
    "load_1_3": {
        "ems": "",
        "entities": ["PVLibExact_0"],
        "cs_ev_connection": {}
    },
    "load_1_4": {
        "ems": "HEMS_forecast_default_0",
        "entities": [
            "HouseholdCSV_2",
            "HouseholdThermalCSV_1",
            "PvCSV_0",
            "PVLib_0",
            "BSS_0",
            "HeatpumpCSV_0",
            "Heatpump_1",
            "ChargingStation_1",
            "EV_1",
            "EV_2"
        ],
        "cs_ev_connection": {
            "ChargingStation_1" : ["EV_1", "EV_2"]
        }
    },
    "load_1_5": {
        "ems": "",
        "entities": [
            "ChargingStation_2",
            "EV_3"
        ],
        "cs_ev_connection": {
            "ChargingStation_2": ["EV_3"]
        }
    },
    "load_1_6": {
        "ems": "",
        "entities": [
            "ChargingStation_3",
            "EV_4",
            "EV_5"
        ],
        "cs_ev_connection": {
            "ChargingStation_3": ["EV_4", "EV_5"]
        }
    },
    "load_2_1": {
        "ems": "",
        "entities": [
            "HouseholdCSV_3",
            "PvCSV_1"
        ],
        "cs_ev_connection": {}
    },
    "load_2_2": {
        "ems": "HEMS_forecast_opt_0",
        "entities": [
            "HouseholdCSV_4",
            "PvCSV_2",
            "BSS_1",
            "ChargingStationCSV_0"
        ],
        "cs_ev_connection": {}
    }
}
